25570|Candela|Pueblo|Candela|Coahuila de Zaragoza||25701|05|25701||28|005|0422|Rural|
25571|Las Coloradas|Ranchería|Candela|Coahuila de Zaragoza||25701|05|25701||29|005|0423|Rural|
25576|Valladares|Congregación|Candela|Coahuila de Zaragoza||25701|05|25701||11|005|0425|Rural|
25590|El Huizachal|Ejido|Candela|Coahuila de Zaragoza||25701|05|25701||15|005|0426|Rural|
