48150|Cuautla|Pueblo|Cuautla|Jalisco||48051|14|48051||28|028|2395|Rural|
48150|El Llanito de Enmedio|Ranchería|Cuautla|Jalisco||48051|14|48051||29|028|2396|Rural|
48153|Tierras Blancas|Ranchería|Cuautla|Jalisco||48051|14|48051||29|028|4561|Rural|
48155|Chilacayote|Congregación|Cuautla|Jalisco||48051|14|48051||11|028|2397|Rural|
48159|Tototlan de Oro|Congregación|Cuautla|Jalisco||48051|14|48051||11|028|2398|Rural|
