46960|Santiago de Pinos|Congregación|San Sebastián del Oeste|Jalisco||46901|14|46901||11|080|1720|Rural|
46963|Copales (Los Copalitos)|Ranchería|San Sebastián del Oeste|Jalisco||63901|14|63901||29|080|1722|Rural|
46966|Santa Ana|Rancho|San Sebastián del Oeste|Jalisco||46901|14|46901||48|080|0002|Rural|
46967|Los Reyes|Pueblo|San Sebastián del Oeste|Jalisco||46901|14|46901||28|080|1721|Rural|
46970|San Felipe de Hijar|Congregación|San Sebastián del Oeste|Jalisco||63901|14|63901||11|080|1723|Rural|
46974|Pueblito San Pablo (El Pueblito)|Congregación|San Sebastián del Oeste|Jalisco||46901|14|46901||11|080|1724|Rural|
46975|Amatanejo|Congregación|San Sebastián del Oeste|Jalisco||63901|14|63901||11|080|1725|Rural|
46980|Cofradía Santa Cruz de Camotlán|Pueblo|San Sebastián del Oeste|Jalisco||63901|14|63901||28|080|1726|Rural|
46984|La Tortuga|Congregación|San Sebastián del Oeste|Jalisco||63901|14|63901||11|080|1727|Rural|
46984|El Tasajal|Rancho|San Sebastián del Oeste|Jalisco||63901|14|63901||48|080|0001|Rural|
46990|San Sebastián del Oeste|Pueblo|San Sebastián del Oeste|Jalisco||46901|14|46901||28|080|1728|Rural|
46995|La Estancia de Landeros|Congregación|San Sebastián del Oeste|Jalisco||46901|14|46901||11|080|1729|Rural|
46996|San Isidro (La Haciendita)|Congregación|San Sebastián del Oeste|Jalisco||46901|14|46901||11|080|1730|Rural|
46997|Soyatán|Congregación|San Sebastián del Oeste|Jalisco||46901|14|46901||11|080|1731|Rural|
