74300|Nealtican|Pueblo|Nealtican|Puebla||72761|21|72761||28|102|1564|Rural|
74300|San Buenaventura Nealtican|Pueblo|Nealtican|Puebla||72761|21|72761||28|102|1565|Rural|
74305|Guadalupe Hidalgo|Pueblo|Nealtican|Puebla||72761|21|72761||28|102|1566|Rural|
