75640|Dolores Hidalgo|Pueblo|Huitziltepec|Puebla||75201|21|75201||28|079|2356|Rural|
75640|Santa Clara Huitziltepec|Pueblo|Huitziltepec|Puebla||75201|21|75201||28|079|2357|Rural|
75641|Santa Ana Coapan|Pueblo|Huitziltepec|Puebla||75201|21|75201||28|079|2358|Rural|
