68774|Santa Catarina Ixtepeji|Pueblo|Santa Catarina Ixtepeji|Oaxaca||68729|20|68729||28|363|0740|Rural|
68775|El Cerezal|Ranchería|Santa Catarina Ixtepeji|Oaxaca||68729|20|68729||29|363|0741|Rural|
68776|San Pedro Nexicho|Ranchería|Santa Catarina Ixtepeji|Oaxaca||68729|20|68729||29|363|0743|Rural|
68776|El Punto|Ranchería|Santa Catarina Ixtepeji|Oaxaca||68729|20|68729||29|363|0742|Rural|
68777|Tierra Colorada|Congregación|Santa Catarina Ixtepeji|Oaxaca||68729|20|68729||11|363|0744|Rural|
