90880|San Miguel Tenancingo|Pueblo|Tenancingo|Tlaxcala||90792|29|90792||28|027|0433|Rural|
90883|Tecoac|Colonia|Tenancingo|Tlaxcala||90792|29|90792||09|027|0927|Urbano|
90884|La Renda|Colonia|Tenancingo|Tlaxcala||90792|29|90792||09|027|0928|Urbano|
90886|El Puente|Colonia|Tenancingo|Tlaxcala||90792|29|90792||09|027|0929|Urbano|
90886|Concepción Acopilco|Colonia|Tenancingo|Tlaxcala||90792|29|90792||09|027|0930|Urbano|
90887|Tepepantlalpa (Magdalena Reyes)|Colonia|Tenancingo|Tlaxcala||90792|29|90792||09|027|0931|Rural|
