84800|Opodepe|Pueblo|Opodepe|Sonora||83191|26|83191||28|045|0810|Rural|
84820|Pueblo Viejo|Congregación|Opodepe|Sonora||84901|26|84901||11|045|0811|Rural|
84824|Tuape|Congregación|Opodepe|Sonora||84901|26|84901||11|045|0812|Rural|
84830|Querobabi|Estación|Opodepe|Sonora||83901|26|83901||16|045|0813|Rural|
84850|Meresichic|Congregación|Opodepe|Sonora||83191|26|83191||11|045|0814|Rural|
