73330|Tonalapa|Pueblo|Ahuacatlán|Puebla||73311|21|73311||28|006|0997|Rural|
73330|Ahuacatlán|Villa|Ahuacatlán|Puebla||73311|21|73311||32|006|0993|Rural|
73330|Xochicuautla|Ranchería|Ahuacatlán|Puebla||73311|21|73311||29|006|0998|Rural|
73330|Tlayehualancingo|Pueblo|Ahuacatlán|Puebla||73311|21|73311||28|006|0996|Rural|
73330|Coaltepec|Pueblo|Ahuacatlán|Puebla||73311|21|73311||28|006|0994|Rural|
73330|Eloxochitlan|Pueblo|Ahuacatlán|Puebla||73311|21|73311||28|006|0995|Rural|
73337|Tlacotepec|Pueblo|Ahuacatlán|Puebla||73311|21|73311||28|006|0999|Rural|
73338|Ixquihuacan|Pueblo|Ahuacatlán|Puebla||73311|21|73311||28|006|1000|Rural|
