85540|La Colorada|Pueblo|La Colorada|Sonora||83002|26|83002||28|021|1334|Rural|
85549|San Jose de Moradillas|Ranchería|La Colorada|Sonora||83002|26|83002||29|021|1336|Rural|
85550|La Galera|Congregación|La Colorada|Sonora||83002|26|83002||11|021|1339|Rural|
85550|San Jose de Pimas|Congregación|La Colorada|Sonora||83002|26|83002||11|021|1337|Rural|
85550|Cobachi|Congregación|La Colorada|Sonora||83002|26|83002||11|021|1338|Rural|
85553|Tecoripa|Pueblo|La Colorada|Sonora||83002|26|83002||28|021|1340|Rural|
85556|Torres|Estación|La Colorada|Sonora||83002|26|83002||16|021|1335|Rural|
