84750|Tepache|Pueblo|Tepache|Sonora||84561|26|84561||28|063|0802|Rural|
84754|Casa Grande|Congregación|Tepache|Sonora||84561|26|84561||11|063|0803|Rural|
84760|Lampazos|Congregación|Tepache|Sonora||84561|26|84561||11|063|0804|Rural|
84760|Mineral de Lampazos|Congregación|Tepache|Sonora||84561|26|84561||11|063|0805|Rural|
