68575|La Reforma|Ranchería|San Mateo Yoloxochitlán|Oaxaca||68507|20|68507||29|249|0599|Rural|
68575|Boca Del Río|Pueblo|San Mateo Yoloxochitlán|Oaxaca||68507|20|68507||28|249|0598|Rural|
68575|San Mateo Yoloxochitlán|Pueblo|San Mateo Yoloxochitlán|Oaxaca||68507|20|68507||28|249|0601|Rural|
