74520|Teolco|Pueblo|Cohuecan|Puebla||74401|21|74401||28|033|1707|Rural|
74520|Cohuecan|Pueblo|Cohuecan|Puebla||74401|21|74401||28|033|1706|Rural|
74521|Cuapesco|Pueblo|Cohuecan|Puebla||74401|21|74401||28|033|1708|Rural|
74522|Tepango|Pueblo|Cohuecan|Puebla||74401|21|74401||28|033|1710|Rural|
74522|Ahuatelco|Pueblo|Cohuecan|Puebla||74401|21|74401||28|033|1709|Rural|
