93120|Progreso de Zaragoza|Pueblo|Coahuitlán|Veracruz de Ignacio de la Llave||93261|30|93261||28|037|2168|Rural|
93122|Coahuitlán|Pueblo|Coahuitlán|Veracruz de Ignacio de la Llave||93261|30|93261||28|037|0001|Rural|
93124|Macedonio Alonso|Congregación|Coahuitlán|Veracruz de Ignacio de la Llave||93261|30|93261||11|037|2169|Rural|
