94810|Astacinga|Pueblo|Astacinga|Veracruz de Ignacio de la Llave||94301|30|94301||28|019|3074|Rural|
94813|Huapango|Congregación|Astacinga|Veracruz de Ignacio de la Llave||94301|30|94301||11|019|7145|Rural|
94815|Acatitla|Pueblo|Astacinga|Veracruz de Ignacio de la Llave||94301|30|94301||28|019|3075|Rural|
