92230|Rancho Nuevo|Ranchería|Citlaltépetl|Veracruz de Ignacio de la Llave||92301|30|92301||29|035|1355|Rural|
92230|Citlaltepec|Pueblo|Citlaltépetl|Veracruz de Ignacio de la Llave||92301|30|92301||28|035|1354|Rural|
92234|Los Altos del Metate|Rancho|Citlaltépetl|Veracruz de Ignacio de la Llave||92301|30|92301||48|035|0001|Rural|
92240|Rincón Del Higo|Ranchería|Citlaltépetl|Veracruz de Ignacio de la Llave||92301|30|92301||29|035|1357|Rural|
92256|El Ciruelar|Pueblo|Citlaltépetl|Veracruz de Ignacio de la Llave||92301|30|92301||28|035|1358|Rural|
92257|La Ceiba|Pueblo|Citlaltépetl|Veracruz de Ignacio de la Llave||92301|30|92301||28|035|1359|Rural|
92259|Zapupal|Pueblo|Citlaltépetl|Veracruz de Ignacio de la Llave||92301|30|92301||28|035|1360|Rural|
92268|Las Sabinas|Pueblo|Citlaltépetl|Veracruz de Ignacio de la Llave||92301|30|92301||28|035|1361|Rural|
