95520|Tlacojalpan Centro|Colonia|Tlacojalpan|Veracruz de Ignacio de la Llave|Tlacojalpan|95401|30|95401||09|176|3365|Rural|52
95525|Gertrudis Valles|Colonia|Tlacojalpan|Veracruz de Ignacio de la Llave|Tlacojalpan|95401|30|95401||09|176|4540|Rural|52
95526|20 de Noviembre|Colonia|Tlacojalpan|Veracruz de Ignacio de la Llave|Tlacojalpan|95401|30|95401||09|176|4539|Rural|52
95530|Alcalde Ambrosio|Ranchería|Tlacojalpan|Veracruz de Ignacio de la Llave||95401|30|95401||29|176|3367|Rural|
95533|Playa Maria|Congregación|Tlacojalpan|Veracruz de Ignacio de la Llave||95401|30|95401||11|176|5460|Rural|
95536|El Cinco|Congregación|Tlacojalpan|Veracruz de Ignacio de la Llave||95401|30|95401||11|176|5459|Rural|
