94440|Atzacan|Villa|Atzacan|Veracruz de Ignacio de la Llave||94301|30|94301||32|022|2882|Rural|
94440|La Sidra|Pueblo|Atzacan|Veracruz de Ignacio de la Llave||94301|30|94301||28|022|2883|Rural|
94442|2 Ríos|Congregación|Atzacan|Veracruz de Ignacio de la Llave||94301|30|94301||11|022|2884|Rural|
94442|Matlalapa|Congregación|Atzacan|Veracruz de Ignacio de la Llave||94301|30|94301||11|022|6866|Rural|
94446|Contla|Congregación|Atzacan|Veracruz de Ignacio de la Llave||94301|30|94301||11|022|7842|Rural|
