99720|La Esperanza|Colonia|Momax|Zacatecas||99701|32|99701||09|030|1229|Rural|
99720|Nueva|Colonia|Momax|Zacatecas||99701|32|99701||09|030|1230|Rural|
99720|Momax|Pueblo|Momax|Zacatecas||99701|32|99701||28|030|0691|Rural|
